\relax 
\providecommand\hyper@newdestlabel[2]{}
\providecommand\HyperFirstAtBeginDocument{\AtBeginDocument}
\HyperFirstAtBeginDocument{\ifx\hyper@anchor\@undefined
\global\let\oldcontentsline\contentsline
\gdef\contentsline#1#2#3#4{\oldcontentsline{#1}{#2}{#3}}
\global\let\oldnewlabel\newlabel
\gdef\newlabel#1#2{\newlabelxx{#1}#2}
\gdef\newlabelxx#1#2#3#4#5#6{\oldnewlabel{#1}{{#2}{#3}}}
\AtEndDocument{\ifx\hyper@anchor\@undefined
\let\contentsline\oldcontentsline
\let\newlabel\oldnewlabel
\fi}
\fi}
\global\let\hyper@last\relax 
\gdef\HyperFirstAtBeginDocument#1{#1}
\providecommand\HyField@AuxAddToFields[1]{}
\providecommand\HyField@AuxAddToCoFields[2]{}
\@writefile{toc}{\contentsline {section}{\numberline {1}Introduction}{1}{section.1}}
\@writefile{toc}{\contentsline {section}{\numberline {2}The Dataset}{1}{section.2}}
\@writefile{toc}{\contentsline {section}{\numberline {3}Exploratory Analysis}{2}{section.3}}
\@writefile{toc}{\contentsline {subsection}{\numberline {3.1}Crime and Location}{2}{subsection.3.1}}
\@writefile{toc}{\contentsline {subsection}{\numberline {3.2}Crime and Time}{2}{subsection.3.2}}
\@writefile{lof}{\contentsline {figure}{\numberline {6}{\ignorespaces Plots of six main crime categories\relax }}{3}{figure.caption.6}}
\@writefile{toc}{\contentsline {section}{\numberline {4}Interpretation to classification methods used}{3}{section.4}}
\@writefile{toc}{\contentsline {subsection}{\numberline {4.1}Linear and Non-linear Support Vector Machine}{3}{subsection.4.1}}
\@writefile{toc}{\contentsline {subsubsection}{\numberline {4.1.1}Interpretation of Results}{3}{subsubsection.4.1.1}}
\@writefile{toc}{\contentsline {subsubsection}{\numberline {4.1.2}Prediction ability of the model}{4}{subsubsection.4.1.2}}
\@writefile{toc}{\contentsline {subsection}{\numberline {4.2}Random Forest}{4}{subsection.4.2}}
\@writefile{toc}{\contentsline {subsubsection}{\numberline {4.2.1}Interpretation of Results}{4}{subsubsection.4.2.1}}
\@writefile{toc}{\contentsline {subsubsection}{\numberline {4.2.2}Prediction ability of the model}{4}{subsubsection.4.2.2}}
\@writefile{toc}{\contentsline {subsection}{\numberline {4.3}Multinomial Logistic Regression}{4}{subsection.4.3}}
\@writefile{toc}{\contentsline {subsubsection}{\numberline {4.3.1}Interpretation of Results}{4}{subsubsection.4.3.1}}
\@writefile{toc}{\contentsline {subsubsection}{\numberline {4.3.2}Prediction ability of the model}{5}{subsubsection.4.3.2}}
\@writefile{toc}{\contentsline {section}{\numberline {5}Results}{5}{section.5}}
\@writefile{lof}{\contentsline {figure}{\numberline {7}{\ignorespaces Results Comparison Table\relax }}{5}{figure.caption.7}}
\providecommand*\caption@xref[2]{\@setref\relax\@undefined{#1}}
\newlabel{default}{{7}{5}{Results Comparison Table\relax }{figure.caption.7}{}}
\@writefile{toc}{\contentsline {section}{\numberline {6}Future Prospects}{5}{section.6}}
\@writefile{toc}{\contentsline {section}{\numberline {7}Conclusion}{5}{section.7}}
\@writefile{toc}{\contentsline {section}{\numberline {8}Appendix}{5}{section.8}}
\@writefile{lof}{\contentsline {figure}{\numberline {8}{\ignorespaces Tree with top-10 categories\relax }}{6}{figure.caption.8}}
\newlabel{default}{{8}{6}{Tree with top-10 categories\relax }{figure.caption.8}{}}
\@writefile{lof}{\contentsline {figure}{\numberline {9}{\ignorespaces Tree with 6 specific categories\relax }}{6}{figure.caption.9}}
\newlabel{default}{{9}{6}{Tree with 6 specific categories\relax }{figure.caption.9}{}}
\@writefile{toc}{\contentsline {section}{\numberline {9}References}{6}{section.9}}
